[gd_resource type="Environment" load_steps=2 format=2]

[sub_resource type="ProceduralSky" id=1]

[resource]
background_mode = 2
background_sky = SubResource( 1 )
ambient_light_color = Color( 0, 0.431373, 0.580392, 1 )
ambient_light_sky_contribution = 0.5
fog_depth_begin = 42.5
fog_depth_end = 125.1
fog_depth_curve = 2.63902
tonemap_mode = 2
ssao_enabled = true
