[gd_scene load_steps=3 format=2]

[ext_resource path="res://models/environment/Pavement/PavementMaterial.tres" type="Material" id=1]

[sub_resource type="ArrayMesh" id=1]
resource_name = "Pavement_Cross"
surfaces/0 = {
"aabb": AABB( -3, -0.51, -3, 6, 0.50001, 6 ),
"array_data": PoolByteArray( 1, 0, 128, 191, 32, 215, 35, 188, 0, 0, 128, 63, 129, 0, 0, 0, 0, 127, 0, 127, 0, 57, 0, 58, 1, 0, 128, 191, 92, 143, 2, 191, 0, 0, 128, 63, 129, 0, 0, 0, 0, 127, 0, 127, 0, 54, 0, 58, 1, 0, 128, 191, 92, 143, 2, 191, 0, 0, 64, 64, 129, 0, 0, 0, 0, 127, 0, 127, 0, 54, 0, 60, 1, 0, 128, 191, 32, 215, 35, 188, 0, 0, 64, 64, 129, 0, 0, 0, 0, 127, 0, 127, 0, 57, 0, 60, 255, 255, 127, 63, 32, 215, 35, 188, 0, 0, 128, 63, 0, 0, 129, 0, 0, 127, 0, 127, 0, 57, 0, 56, 255, 255, 127, 63, 92, 143, 2, 191, 0, 0, 128, 63, 0, 0, 129, 0, 0, 127, 0, 127, 0, 54, 0, 56, 1, 0, 128, 191, 92, 143, 2, 191, 0, 0, 128, 63, 0, 0, 129, 0, 0, 127, 0, 127, 0, 54, 0, 58, 1, 0, 128, 191, 32, 215, 35, 188, 0, 0, 128, 63, 0, 0, 129, 0, 0, 127, 0, 127, 0, 57, 0, 58, 255, 255, 127, 63, 32, 215, 35, 188, 0, 0, 64, 64, 127, 0, 0, 0, 0, 127, 0, 127, 0, 57, 0, 52, 255, 255, 127, 63, 92, 143, 2, 191, 0, 0, 64, 64, 127, 0, 0, 0, 0, 127, 0, 127, 0, 54, 0, 52, 255, 255, 127, 63, 92, 143, 2, 191, 0, 0, 128, 63, 127, 0, 0, 0, 0, 127, 0, 127, 0, 54, 0, 56, 255, 255, 127, 63, 32, 215, 35, 188, 0, 0, 128, 63, 127, 0, 0, 0, 0, 127, 0, 127, 0, 57, 0, 56, 1, 0, 128, 191, 32, 215, 35, 188, 0, 0, 64, 64, 0, 0, 127, 0, 0, 127, 0, 127, 0, 57, 0, 0, 1, 0, 128, 191, 92, 143, 2, 191, 0, 0, 64, 64, 0, 0, 127, 0, 0, 127, 0, 127, 0, 54, 0, 0, 255, 255, 127, 63, 92, 143, 2, 191, 0, 0, 64, 64, 0, 0, 127, 0, 0, 127, 0, 127, 0, 54, 0, 52, 255, 255, 127, 63, 32, 215, 35, 188, 0, 0, 64, 64, 0, 0, 127, 0, 0, 127, 0, 127, 0, 57, 0, 52, 1, 0, 128, 191, 92, 143, 2, 191, 0, 0, 64, 64, 0, 129, 0, 0, 127, 0, 0, 127, 0, 48, 0, 52, 1, 0, 128, 191, 92, 143, 2, 191, 0, 0, 128, 63, 0, 129, 0, 0, 127, 0, 0, 127, 0, 48, 0, 56, 255, 255, 127, 63, 92, 143, 2, 191, 0, 0, 128, 63, 0, 129, 0, 0, 127, 0, 0, 127, 0, 54, 0, 56, 255, 255, 127, 63, 92, 143, 2, 191, 0, 0, 64, 64, 0, 129, 0, 0, 127, 0, 0, 127, 0, 54, 0, 52, 255, 255, 127, 63, 32, 215, 35, 188, 0, 0, 64, 64, 0, 127, 0, 0, 129, 0, 0, 127, 0, 57, 0, 52, 255, 255, 127, 63, 32, 215, 35, 188, 0, 0, 128, 63, 0, 127, 0, 0, 129, 0, 0, 127, 0, 57, 0, 56, 1, 0, 128, 191, 32, 215, 35, 188, 0, 0, 128, 63, 0, 127, 0, 0, 129, 0, 0, 127, 0, 59, 0, 56, 1, 0, 128, 191, 32, 215, 35, 188, 0, 0, 64, 64, 0, 127, 0, 0, 129, 0, 0, 127, 0, 59, 0, 52, 3, 0, 128, 191, 32, 215, 35, 188, 2, 0, 128, 191, 129, 0, 0, 0, 0, 127, 0, 127, 0, 57, 0, 58, 3, 0, 128, 191, 92, 143, 2, 191, 2, 0, 128, 191, 129, 0, 0, 0, 0, 127, 0, 127, 0, 54, 0, 58, 1, 0, 128, 191, 92, 143, 2, 191, 0, 0, 128, 63, 129, 0, 0, 0, 0, 127, 0, 127, 0, 54, 0, 60, 1, 0, 128, 191, 32, 215, 35, 188, 0, 0, 128, 63, 129, 0, 0, 0, 0, 127, 0, 127, 0, 57, 0, 60, 253, 255, 127, 63, 32, 215, 35, 188, 8, 0, 128, 191, 0, 0, 129, 0, 0, 127, 0, 127, 0, 57, 0, 56, 253, 255, 127, 63, 92, 143, 2, 191, 8, 0, 128, 191, 0, 0, 129, 0, 0, 127, 0, 127, 0, 54, 0, 56, 3, 0, 128, 191, 92, 143, 2, 191, 2, 0, 128, 191, 0, 0, 129, 0, 0, 127, 0, 127, 0, 54, 0, 58, 3, 0, 128, 191, 32, 215, 35, 188, 2, 0, 128, 191, 0, 0, 129, 0, 0, 127, 0, 127, 0, 57, 0, 58, 255, 255, 127, 63, 32, 215, 35, 188, 0, 0, 128, 63, 127, 0, 0, 0, 0, 127, 0, 127, 0, 57, 0, 52, 255, 255, 127, 63, 92, 143, 2, 191, 0, 0, 128, 63, 127, 0, 0, 0, 0, 127, 0, 127, 0, 54, 0, 52, 253, 255, 127, 63, 92, 143, 2, 191, 8, 0, 128, 191, 127, 0, 0, 0, 0, 127, 0, 127, 0, 54, 0, 56, 253, 255, 127, 63, 32, 215, 35, 188, 8, 0, 128, 191, 127, 0, 0, 0, 0, 127, 0, 127, 0, 57, 0, 56, 3, 0, 128, 191, 92, 143, 2, 191, 2, 0, 128, 191, 0, 129, 0, 0, 127, 0, 0, 127, 0, 48, 0, 56, 253, 255, 127, 63, 92, 143, 2, 191, 8, 0, 128, 191, 0, 129, 0, 0, 127, 0, 0, 127, 0, 54, 0, 56, 255, 255, 127, 63, 92, 143, 2, 191, 0, 0, 128, 63, 0, 129, 0, 0, 126, 0, 0, 127, 0, 54, 0, 52, 1, 0, 128, 191, 92, 143, 2, 191, 0, 0, 128, 63, 0, 129, 0, 0, 126, 0, 0, 127, 0, 48, 0, 52, 255, 255, 127, 63, 32, 215, 35, 188, 0, 0, 128, 63, 0, 127, 0, 0, 130, 0, 0, 127, 0, 57, 0, 52, 253, 255, 127, 63, 32, 215, 35, 188, 8, 0, 128, 191, 0, 127, 0, 0, 129, 0, 0, 127, 0, 57, 0, 56, 3, 0, 128, 191, 32, 215, 35, 188, 2, 0, 128, 191, 0, 127, 0, 0, 129, 0, 0, 127, 0, 59, 0, 56, 1, 0, 128, 191, 32, 215, 35, 188, 0, 0, 128, 63, 0, 127, 0, 0, 130, 0, 0, 127, 0, 59, 0, 52, 1, 0, 128, 191, 32, 215, 35, 188, 0, 0, 64, 192, 129, 0, 0, 0, 0, 127, 0, 127, 0, 57, 0, 58, 1, 0, 128, 191, 92, 143, 2, 191, 0, 0, 64, 192, 129, 0, 0, 0, 0, 127, 0, 127, 0, 54, 0, 58, 3, 0, 128, 191, 92, 143, 2, 191, 2, 0, 128, 191, 129, 0, 0, 0, 0, 127, 0, 127, 0, 54, 0, 60, 3, 0, 128, 191, 32, 215, 35, 188, 2, 0, 128, 191, 129, 0, 0, 0, 0, 127, 0, 127, 0, 57, 0, 60, 255, 255, 127, 63, 32, 215, 35, 188, 0, 0, 64, 192, 0, 0, 129, 0, 0, 127, 0, 127, 0, 57, 0, 56, 255, 255, 127, 63, 92, 143, 2, 191, 0, 0, 64, 192, 0, 0, 129, 0, 0, 127, 0, 127, 0, 54, 0, 56, 1, 0, 128, 191, 92, 143, 2, 191, 0, 0, 64, 192, 0, 0, 129, 0, 0, 127, 0, 127, 0, 54, 0, 58, 1, 0, 128, 191, 32, 215, 35, 188, 0, 0, 64, 192, 0, 0, 129, 0, 0, 127, 0, 127, 0, 57, 0, 58, 253, 255, 127, 63, 32, 215, 35, 188, 8, 0, 128, 191, 127, 0, 0, 0, 0, 127, 0, 127, 0, 57, 0, 52, 253, 255, 127, 63, 92, 143, 2, 191, 8, 0, 128, 191, 127, 0, 0, 0, 0, 127, 0, 127, 0, 54, 0, 52, 255, 255, 127, 63, 92, 143, 2, 191, 0, 0, 64, 192, 127, 0, 0, 0, 0, 127, 0, 127, 0, 54, 0, 56, 255, 255, 127, 63, 32, 215, 35, 188, 0, 0, 64, 192, 127, 0, 0, 0, 0, 127, 0, 127, 0, 57, 0, 56, 3, 0, 128, 191, 92, 143, 2, 191, 2, 0, 128, 191, 0, 129, 0, 0, 127, 0, 0, 127, 0, 48, 0, 52, 1, 0, 128, 191, 92, 143, 2, 191, 0, 0, 64, 192, 0, 129, 0, 0, 126, 0, 0, 127, 0, 48, 0, 56, 255, 255, 127, 63, 92, 143, 2, 191, 0, 0, 64, 192, 0, 129, 0, 0, 127, 0, 0, 127, 0, 54, 0, 56, 253, 255, 127, 63, 92, 143, 2, 191, 8, 0, 128, 191, 0, 129, 0, 0, 127, 0, 0, 127, 0, 54, 0, 52, 253, 255, 127, 63, 32, 215, 35, 188, 8, 0, 128, 191, 0, 127, 0, 0, 129, 0, 0, 127, 0, 57, 0, 52, 255, 255, 127, 63, 32, 215, 35, 188, 0, 0, 64, 192, 0, 127, 0, 0, 129, 0, 0, 127, 0, 57, 0, 56, 1, 0, 128, 191, 32, 215, 35, 188, 0, 0, 64, 192, 0, 127, 0, 0, 130, 0, 0, 127, 0, 59, 0, 56, 3, 0, 128, 191, 32, 215, 35, 188, 2, 0, 128, 191, 0, 127, 0, 0, 130, 0, 0, 127, 0, 59, 0, 52, 254, 255, 63, 192, 32, 215, 35, 188, 2, 0, 128, 63, 0, 0, 127, 0, 0, 127, 0, 127, 0, 57, 0, 58, 254, 255, 63, 192, 92, 143, 2, 191, 2, 0, 128, 63, 0, 0, 127, 0, 0, 127, 0, 127, 0, 54, 0, 58, 1, 0, 128, 191, 92, 143, 2, 191, 0, 0, 128, 63, 0, 0, 127, 0, 0, 127, 0, 127, 0, 54, 0, 60, 1, 0, 128, 191, 32, 215, 35, 188, 0, 0, 128, 63, 0, 0, 127, 0, 0, 127, 0, 127, 0, 57, 0, 60, 0, 0, 64, 192, 32, 215, 35, 188, 252, 255, 127, 191, 129, 0, 0, 0, 0, 127, 0, 127, 0, 57, 0, 56, 0, 0, 64, 192, 92, 143, 2, 191, 252, 255, 127, 191, 129, 0, 0, 0, 0, 127, 0, 127, 0, 54, 0, 56, 254, 255, 63, 192, 92, 143, 2, 191, 2, 0, 128, 63, 129, 0, 0, 0, 0, 127, 0, 127, 0, 54, 0, 58, 254, 255, 63, 192, 32, 215, 35, 188, 2, 0, 128, 63, 129, 0, 0, 0, 0, 127, 0, 127, 0, 57, 0, 58, 3, 0, 128, 191, 32, 215, 35, 188, 2, 0, 128, 191, 0, 0, 129, 0, 0, 127, 0, 127, 0, 57, 0, 52, 3, 0, 128, 191, 92, 143, 2, 191, 2, 0, 128, 191, 0, 0, 129, 0, 0, 127, 0, 127, 0, 54, 0, 52, 0, 0, 64, 192, 92, 143, 2, 191, 252, 255, 127, 191, 0, 0, 129, 0, 0, 127, 0, 127, 0, 54, 0, 56, 0, 0, 64, 192, 32, 215, 35, 188, 252, 255, 127, 191, 0, 0, 129, 0, 0, 127, 0, 127, 0, 57, 0, 56, 0, 0, 64, 192, 92, 143, 2, 191, 252, 255, 127, 191, 0, 129, 0, 0, 0, 0, 129, 127, 0, 54, 0, 56, 3, 0, 128, 191, 92, 143, 2, 191, 2, 0, 128, 191, 0, 129, 0, 0, 0, 0, 129, 127, 0, 54, 0, 52, 1, 0, 128, 191, 92, 143, 2, 191, 0, 0, 128, 63, 0, 129, 0, 0, 0, 0, 129, 127, 0, 48, 0, 52, 254, 255, 63, 192, 92, 143, 2, 191, 2, 0, 128, 63, 0, 129, 0, 0, 0, 0, 130, 127, 0, 48, 0, 56, 1, 0, 128, 191, 32, 215, 35, 188, 0, 0, 128, 63, 0, 127, 0, 0, 0, 0, 127, 127, 0, 59, 0, 52, 3, 0, 128, 191, 32, 215, 35, 188, 2, 0, 128, 191, 0, 127, 0, 0, 0, 0, 127, 127, 0, 57, 0, 52, 0, 0, 64, 192, 32, 215, 35, 188, 252, 255, 127, 191, 0, 127, 0, 0, 0, 0, 127, 127, 0, 57, 0, 56, 254, 255, 63, 192, 32, 215, 35, 188, 2, 0, 128, 63, 0, 127, 0, 0, 0, 0, 126, 127, 0, 59, 0, 56, 255, 255, 127, 63, 32, 215, 35, 188, 0, 0, 128, 63, 0, 0, 127, 0, 0, 127, 0, 127, 0, 57, 0, 58, 255, 255, 127, 63, 92, 143, 2, 191, 0, 0, 128, 63, 0, 0, 127, 0, 0, 127, 0, 127, 0, 54, 0, 58, 2, 0, 64, 64, 92, 143, 2, 191, 232, 255, 127, 63, 0, 0, 127, 0, 0, 127, 0, 127, 0, 54, 0, 60, 2, 0, 64, 64, 32, 215, 35, 188, 232, 255, 127, 63, 0, 0, 127, 0, 0, 127, 0, 127, 0, 57, 0, 60, 254, 255, 63, 64, 32, 215, 35, 188, 12, 0, 128, 191, 0, 0, 129, 0, 0, 127, 0, 127, 0, 57, 0, 52, 254, 255, 63, 64, 92, 143, 2, 191, 12, 0, 128, 191, 0, 0, 129, 0, 0, 127, 0, 127, 0, 54, 0, 52, 253, 255, 127, 63, 92, 143, 2, 191, 8, 0, 128, 191, 0, 0, 129, 0, 0, 127, 0, 127, 0, 54, 0, 56, 253, 255, 127, 63, 32, 215, 35, 188, 8, 0, 128, 191, 0, 0, 129, 0, 0, 127, 0, 127, 0, 57, 0, 56, 2, 0, 64, 64, 32, 215, 35, 188, 232, 255, 127, 63, 127, 0, 0, 0, 0, 127, 0, 127, 0, 57, 0, 0, 2, 0, 64, 64, 92, 143, 2, 191, 232, 255, 127, 63, 127, 0, 0, 0, 0, 127, 0, 127, 0, 54, 0, 0, 254, 255, 63, 64, 92, 143, 2, 191, 12, 0, 128, 191, 127, 0, 0, 0, 0, 127, 0, 127, 0, 54, 0, 52, 254, 255, 63, 64, 32, 215, 35, 188, 12, 0, 128, 191, 127, 0, 0, 0, 0, 127, 0, 127, 0, 57, 0, 52, 253, 255, 127, 63, 92, 143, 2, 191, 8, 0, 128, 191, 0, 129, 0, 0, 0, 0, 129, 127, 0, 54, 0, 56, 254, 255, 63, 64, 92, 143, 2, 191, 12, 0, 128, 191, 0, 129, 0, 0, 0, 0, 129, 127, 0, 54, 0, 52, 2, 0, 64, 64, 92, 143, 2, 191, 232, 255, 127, 63, 0, 129, 0, 0, 0, 0, 129, 127, 0, 48, 0, 52, 255, 255, 127, 63, 92, 143, 2, 191, 0, 0, 128, 63, 0, 129, 0, 0, 0, 0, 129, 127, 0, 48, 0, 56, 2, 0, 64, 64, 32, 215, 35, 188, 232, 255, 127, 63, 0, 127, 0, 0, 0, 0, 127, 127, 0, 59, 0, 52, 254, 255, 63, 64, 32, 215, 35, 188, 12, 0, 128, 191, 0, 127, 0, 0, 0, 0, 127, 127, 0, 57, 0, 52, 253, 255, 127, 63, 32, 215, 35, 188, 8, 0, 128, 191, 0, 127, 0, 0, 0, 0, 127, 127, 0, 57, 0, 56, 255, 255, 127, 63, 32, 215, 35, 188, 0, 0, 128, 63, 0, 127, 0, 0, 0, 0, 127, 127, 0, 59, 0, 56 ),
"array_index_data": PoolByteArray( 0, 0, 2, 0, 1, 0, 0, 0, 3, 0, 2, 0, 4, 0, 6, 0, 5, 0, 4, 0, 7, 0, 6, 0, 8, 0, 10, 0, 9, 0, 8, 0, 11, 0, 10, 0, 12, 0, 14, 0, 13, 0, 12, 0, 15, 0, 14, 0, 16, 0, 18, 0, 17, 0, 16, 0, 19, 0, 18, 0, 20, 0, 22, 0, 21, 0, 20, 0, 23, 0, 22, 0, 24, 0, 26, 0, 25, 0, 24, 0, 27, 0, 26, 0, 28, 0, 30, 0, 29, 0, 28, 0, 31, 0, 30, 0, 32, 0, 34, 0, 33, 0, 32, 0, 35, 0, 34, 0, 36, 0, 38, 0, 37, 0, 39, 0, 38, 0, 36, 0, 40, 0, 42, 0, 41, 0, 40, 0, 43, 0, 42, 0, 44, 0, 46, 0, 45, 0, 44, 0, 47, 0, 46, 0, 48, 0, 50, 0, 49, 0, 48, 0, 51, 0, 50, 0, 52, 0, 54, 0, 53, 0, 52, 0, 55, 0, 54, 0, 56, 0, 58, 0, 57, 0, 56, 0, 59, 0, 58, 0, 60, 0, 62, 0, 61, 0, 60, 0, 63, 0, 62, 0, 64, 0, 66, 0, 65, 0, 64, 0, 67, 0, 66, 0, 68, 0, 70, 0, 69, 0, 68, 0, 71, 0, 70, 0, 72, 0, 74, 0, 73, 0, 72, 0, 75, 0, 74, 0, 76, 0, 78, 0, 77, 0, 79, 0, 78, 0, 76, 0, 80, 0, 82, 0, 81, 0, 80, 0, 83, 0, 82, 0, 84, 0, 86, 0, 85, 0, 84, 0, 87, 0, 86, 0, 88, 0, 90, 0, 89, 0, 88, 0, 91, 0, 90, 0, 92, 0, 94, 0, 93, 0, 92, 0, 95, 0, 94, 0, 96, 0, 98, 0, 97, 0, 99, 0, 98, 0, 96, 0, 100, 0, 102, 0, 101, 0, 100, 0, 103, 0, 102, 0 ),
"blend_shape_data": [  ],
"format": 97559,
"index_count": 156,
"primitive": 4,
"skeleton_aabb": [  ],
"vertex_count": 104
}

[node name="Pavement_Cross" type="Spatial"]

[node name="Pavement_Cross" type="MeshInstance" parent="."]
transform = Transform( 2, 0, 0, 0, 2, 0, 0, 0, 2, 0, 0, 0 )
use_in_baked_light = true
mesh = SubResource( 1 )
material/0 = ExtResource( 1 )
