[gd_scene load_steps=4 format=2]

[ext_resource path="res://src/dog/dog.tscn" type="PackedScene" id=3]
[ext_resource path="res://src/level_settings.gd" type="Script" id=5]
[ext_resource path="res://audio/OGGS/Background_Ambience.ogg" type="AudioStream" id=6]

[node name="TutorialLevel1" type="Node"]
script = ExtResource( 5 )
happiness_threshold = 70

[node name="Dog" parent="." instance=ExtResource( 3 )]
transform = Transform( -1, 0, -3.25841e-07, 0, 1, 0, 3.25841e-07, 0, -1, 0, 0, 0 )

[node name="Camera" type="Camera" parent="."]
transform = Transform( 0.984808, -0.122788, 0.122788, 0, 0.707107, 0.707107, -0.173648, -0.696364, 0.696364, 10, 21.871, 28.205 )

[node name="AmbientSounds" type="AudioStreamPlayer" parent="."]
stream = ExtResource( 6 )
autoplay = true
bus = "Ambient"
